<svg width="96" height="102" viewBox="0 0 96 102" fill="none" xmlns="http://www.w3.org/2000/svg">
<path d="M45.1911 82.5195L47.3925 90.4019C47.3925 90.4019 44.8132 90.6757 42.3496 91.9827" stroke="#2A2A2A" stroke-width="1.15663" stroke-miterlimit="10" stroke-linecap="round" stroke-linejoin="round"/>
<path d="M42.498 89.7312L47.3482 90.3808L44.7342 93.4941" stroke="#2A2A2A" stroke-width="1.15663" stroke-miterlimit="10" stroke-linecap="round" stroke-linejoin="round"/>
<path d="M55.3165 78.7549L52.0645 90.4021C52.0645 90.4021 54.6437 90.6758 57.1073 91.9828" stroke="#2A2A2A" stroke-width="1.15663" stroke-miterlimit="10" stroke-linecap="round" stroke-linejoin="round"/>
<path d="M56.9614 89.7312L52.1094 90.3808L54.7234 93.4941" stroke="#2A2A2A" stroke-width="1.15663" stroke-miterlimit="10" stroke-linecap="round" stroke-linejoin="round"/>
<path d="M44.525 82.2902C62.3791 82.2902 76.8527 67.8166 76.8527 49.9625C76.8527 32.1084 62.3791 17.6348 44.525 17.6348C26.6709 17.6348 12.1973 32.1084 12.1973 49.9625C12.1973 67.8166 26.6709 82.2902 44.525 82.2902Z" fill="#00AE90"/>
<path d="M27.9333 55.4796C35.0653 55.4796 40.847 49.6979 40.847 42.5658C40.847 35.4338 35.0653 29.6521 27.9333 29.6521C20.8012 29.6521 15.0195 35.4338 15.0195 42.5658C15.0195 49.6979 20.8012 55.4796 27.9333 55.4796Z" fill="#F5F7F5"/>
<path d="M52.5758 47.0902C59.7079 47.0902 65.4896 41.3085 65.4896 34.1764C65.4896 27.0444 59.7079 21.2627 52.5758 21.2627C45.4438 21.2627 39.6621 27.0444 39.6621 34.1764C39.6621 41.3085 45.4438 47.0902 52.5758 47.0902Z" fill="#F5F7F5"/>
<path d="M27.7074 48.9351C31.2921 48.9351 34.198 46.0291 34.198 42.4445C34.198 38.8598 31.2921 35.9539 27.7074 35.9539C24.1227 35.9539 21.2168 38.8598 21.2168 42.4445C21.2168 46.0291 24.1227 48.9351 27.7074 48.9351Z" fill="#2A2A2A"/>
<path d="M52.5746 40.5552C56.1592 40.5552 59.0652 37.6492 59.0652 34.0646C59.0652 30.4799 56.1592 27.574 52.5746 27.574C48.9899 27.574 46.084 30.4799 46.084 34.0646C46.084 37.6492 48.9899 40.5552 52.5746 40.5552Z" fill="#2A2A2A"/>
<path opacity="0.2" d="M57.3239 56.3087C54.8507 57.1511 52.8497 58.7048 51.3808 60.9255C50.6386 62.0475 50.0507 63.3101 49.6266 64.6942C48.4449 63.8556 47.2073 63.2137 45.935 62.778C43.4155 61.9144 40.8844 61.9029 38.4092 62.7453C35.0994 63.873 32.5066 66.2344 31.1071 69.3959C29.7962 72.3588 29.6516 75.8036 30.6618 79.1559C38.0006 82.6412 46.6463 83.3891 54.9451 80.5631C63.3133 77.714 69.75 71.7708 73.4223 64.4455C72.1673 61.2359 69.9755 58.647 67.1668 57.1202C64.1288 55.472 60.6338 55.1829 57.3239 56.3087Z" fill="#F5F7F5"/>
<path d="M23.7246 19.6416L31.4702 27.0903C33.5579 29.0971 36.8292 26.5814 35.4258 24.0484L30.1959 14.6161C29.4422 13.2551 27.6494 12.8947 26.4273 13.8566L23.9116 15.8421C22.7106 16.7886 22.622 18.5814 23.7246 19.6416Z" fill="#00AE90"/>
<path d="M32.6434 13.5192L32.9094 24.2624C32.9808 27.1578 37.0771 27.6705 37.8617 24.8831L40.7803 14.5004C41.2005 13.0026 40.1808 11.4855 38.6347 11.3101L35.4501 10.9496C33.9273 10.778 32.6048 11.9886 32.6434 13.5192Z" fill="#00AE90"/>
<path d="M55.9278 20.0059C55.9278 20.0059 45.2039 14.6102 40.375 26.4097" stroke="#2A2A2A" stroke-width="1.15663" stroke-miterlimit="10" stroke-linecap="round" stroke-linejoin="round"/>
<path d="M16.3281 33.4882C16.3281 33.4882 21.5329 22.6699 32.5575 29.0719" stroke="#2A2A2A" stroke-width="1.15663" stroke-miterlimit="10" stroke-linecap="round" stroke-linejoin="round"/>
<path d="M80.339 37.1315C78.9125 35.4602 74.793 31.4448 71.7915 36.6168C71.7915 36.6168 67.5467 46.587 73.9602 52.451L72.152 58.9243C72.152 58.9243 75.0629 63.3426 77.2238 62.6024C77.2238 62.6024 78.392 61.3686 77.0947 59.8188C78.1588 60.8578 80.8556 63.2135 82.6445 62.3344C82.6445 62.3344 83.8127 61.0795 80.8845 58.5831C81.8445 59.1807 83.1535 59.6973 84.1578 58.9744C84.1578 58.9744 85.1332 57.0371 82.3612 54.3595C82.2802 54.2824 84.5607 51.1903 84.7284 50.9494C85.3954 49.9913 87.2229 48.1812 87.0378 47.092C86.3727 43.2077 82.7737 39.9826 80.339 37.1315Z" fill="#00AE90"/>
<path d="M10.9634 58.5041C11.5359 56.3817 13.533 50.9879 18.4641 54.3711C18.4641 54.3711 26.5759 61.5556 23.2988 69.6038L27.7094 74.6756C27.7094 74.6756 26.975 79.9152 24.7061 80.1735C24.7061 80.1735 23.1215 79.5585 23.6285 77.6038C23.1138 78.9976 21.6873 82.2824 19.694 82.2592C19.694 82.2592 18.0998 81.627 19.6728 78.1147C19.0617 79.067 18.1017 80.0944 16.8834 79.8727C16.8834 79.8727 15.1716 78.5407 16.5268 74.9339C16.5653 74.8279 13.1803 73.0159 12.9258 72.8694C11.9138 72.2911 9.48485 71.439 9.18606 70.3749C8.12003 66.5831 9.98799 62.1262 10.9634 58.5041Z" fill="#00AE90"/>
<path d="M73.0156 34.6758C73.0156 34.6758 80.58 48.2604 74.7891 61.3264" stroke="#2A2A2A" stroke-width="1.15663" stroke-miterlimit="10" stroke-linecap="round" stroke-linejoin="round"/>
<path d="M51.9662 12.2642C51.5903 12.1891 51.3011 12.0078 51.0949 11.7245C50.8905 11.4411 50.8289 11.0922 50.9117 10.6777C50.9754 10.3674 51.093 10.0666 51.2645 9.77941C51.438 9.49026 51.7387 9.18761 52.1648 8.86953L53.4525 7.89604C53.8149 7.63194 54.0751 7.39291 54.2351 7.17508C54.3932 6.95724 54.4973 6.72592 54.5474 6.4811C54.6226 6.1052 54.5686 5.77556 54.3836 5.48833C54.1985 5.2011 53.9132 5.01989 53.5238 4.94086C53.1614 4.86761 52.8587 4.89459 52.6197 5.01989C52.3787 5.14712 52.1628 5.34568 51.9739 5.61748C51.7715 5.88736 51.5498 6.06664 51.3089 6.15917C51.0679 6.2517 50.8173 6.27291 50.559 6.22086C50.1831 6.14568 49.9036 5.97797 49.7204 5.71773C49.5373 5.45748 49.4814 5.14712 49.5546 4.78471C49.5855 4.62857 49.653 4.46086 49.757 4.27965C50.1175 3.62423 50.6746 3.13459 51.4284 2.80881C52.1821 2.48303 53.0554 2.41941 54.052 2.62182C54.6342 2.73941 55.1469 2.93797 55.5884 3.21556C56.0298 3.49315 56.3922 3.82279 56.6717 4.20255C56.9513 4.5823 57.1421 5.00447 57.2443 5.46905C57.3464 5.93363 57.3464 6.41941 57.2443 6.92447C57.144 7.41604 56.9744 7.84592 56.7315 8.21604C56.4886 8.58423 56.1397 8.93122 55.6828 9.257L54.2081 10.3539C54.0038 10.5004 53.8534 10.643 53.759 10.778C53.6645 10.9129 53.6009 11.0594 53.5701 11.2136C53.4872 11.6281 53.2886 11.925 52.9763 12.1042C52.666 12.2835 52.3286 12.3375 51.9662 12.2642ZM49.8958 14.3115C49.9845 13.8719 50.2158 13.5269 50.5898 13.2801C50.9638 13.0315 51.3705 12.9524 51.8101 13.0411C52.2496 13.1298 52.5946 13.3611 52.8414 13.7351C53.0901 14.1091 53.1691 14.5158 53.0804 14.9553C52.9917 15.3948 52.7604 15.7399 52.3864 15.9866C52.0125 16.2353 51.6057 16.3144 51.1662 16.2257C50.7267 16.137 50.3816 15.9057 50.1349 15.5317C49.8862 15.1577 49.8072 14.751 49.8958 14.3115Z" fill="#00A688"/>
<path d="M57.2628 15.5105C57.5423 15.3659 57.8296 15.3389 58.1283 15.4334C58.4271 15.5278 58.6508 15.7129 58.7953 15.9924C58.9399 16.27 58.9669 16.5591 58.8724 16.8579C58.778 17.1567 58.5929 17.3803 58.3134 17.5249C58.0339 17.6695 57.7467 17.6965 57.4479 17.602C57.1491 17.5076 56.9255 17.3225 56.7809 17.043C56.6363 16.7635 56.6093 16.4763 56.7038 16.1775C56.7982 15.8767 56.9852 15.655 57.2628 15.5105ZM59.2869 15.7341C59.1635 15.497 59.1327 15.2599 59.1963 15.0228C59.2599 14.7856 59.4238 14.5987 59.6859 14.4618C59.8826 14.3596 60.0965 14.2922 60.3298 14.2594C60.563 14.2266 60.8599 14.2555 61.2204 14.35L62.3153 14.6218C62.618 14.7028 62.8628 14.7394 63.0517 14.7297C63.2387 14.7201 63.4103 14.6758 63.5664 14.5929C63.8035 14.4695 63.9597 14.2941 64.0349 14.0666C64.11 13.8391 64.083 13.604 63.9539 13.3591C63.8344 13.1297 63.6859 12.9775 63.5124 12.9023C63.337 12.8271 63.1346 12.7982 62.9033 12.8136C62.6681 12.8213 62.4715 12.7808 62.3153 12.6902C62.1592 12.5996 62.0377 12.4724 61.9529 12.3085C61.8296 12.0714 61.7968 11.8459 61.8565 11.6319C61.9163 11.4179 62.0609 11.2522 62.2903 11.1307C62.3886 11.0787 62.51 11.042 62.6546 11.0189C63.1693 10.9264 63.6821 11.015 64.1891 11.2811C64.698 11.5471 65.1163 11.9943 65.4459 12.6266C65.6387 12.9948 65.7563 13.3611 65.8006 13.7235C65.843 14.0859 65.8238 14.4271 65.7409 14.7471C65.658 15.0671 65.5115 15.3562 65.3033 15.6165C65.0951 15.8767 64.831 16.0888 64.511 16.2565C64.1987 16.4184 63.8903 16.5148 63.5838 16.5456C63.2773 16.5765 62.9341 16.5379 62.5563 16.4338L61.311 16.1138C61.1414 16.0676 60.9968 16.0483 60.883 16.056C60.7674 16.0637 60.6614 16.0946 60.563 16.1447C60.3009 16.2815 60.0522 16.3047 59.817 16.2141C59.5818 16.1235 59.4083 15.9635 59.2869 15.7341Z" fill="#00A688"/>
<path d="M29.0879 78.3653C23.3125 75.227 18.4739 70.3326 15.457 64.1138" stroke="#2A2A2A" stroke-width="1.15663" stroke-miterlimit="10" stroke-linecap="round" stroke-linejoin="round"/>
<path d="M35.9892 52.6844L43.1507 49.6656C43.3531 49.6945 43.808 49.5383 43.9507 49.3918L51.6808 47.3253C51.8697 47.1306 51.8196 46.8974 51.5709 46.8299L42.2543 44.2487C42.021 44.1851 41.7088 44.2911 41.5642 44.4839L35.7714 52.2236C35.6172 52.4299 35.7194 52.6458 35.9892 52.6844Z" fill="#F6C945"/>
<path d="M47.819 48.991L44.2527 49.9606C44.1563 49.9567 43.6089 50.1418 43.5356 50.2054L40.0561 51.6416C39.9578 51.7264 39.9751 51.817 40.0927 51.8363L44.511 52.5553C44.6209 52.5727 44.7751 52.5206 44.8522 52.4396L47.9077 49.1683C47.9886 49.0796 47.9481 48.9967 47.819 48.991Z" fill="#F6C945"/>
<path d="M35.2988 53.1452C35.2988 53.1452 46.1615 48.376 52.2916 47.3428" stroke="#2A2A2A" stroke-width="1.15663" stroke-miterlimit="10" stroke-linecap="round" stroke-linejoin="round"/>
</svg>
