<svg width="75" height="75" viewBox="0 0 75 75" fill="none" xmlns="http://www.w3.org/2000/svg">
<path d="M37.5 75C58.2107 75 75 58.2107 75 37.5C75 16.7893 58.2107 0 37.5 0C16.7893 0 0 16.7893 0 37.5C0 58.2107 16.7893 75 37.5 75Z" fill="#EBFAF7"/>
<rect x="39.6357" y="48.7988" width="12.0897" height="16.3533" rx="6.04484" fill="#272F3A"/>
<path d="M43.4919 58.0435H31.5082C24.779 58.046 18.7031 62.071 16.0762 68.2663C28.9544 77.2332 46.0539 77.2332 58.9322 68.2663C56.3041 62.0683 50.2241 58.0428 43.4919 58.0435Z" fill="#00BF9A"/>
<path d="M21.8564 68.6006V71.5761C22.3238 71.7935 22.7967 72 23.2749 72.1957V68.6006H21.8564Z" fill="#008C74"/>
<path d="M53.1444 68.6006H51.7178V72.2038C52.196 72.0082 52.6689 71.8017 53.1363 71.5843L53.1444 68.6006Z" fill="#008C74"/>
<path d="M32.5273 58.0435C35.4835 63.226 37.1604 69.0392 37.4186 75H37.5002C37.7585 69.0392 39.4353 63.226 42.3915 58.0435L32.5273 58.0435Z" fill="#008C74"/>
<path d="M37.4995 14.6738C47.7063 14.6738 55.9805 22.948 55.9805 33.1548V40.9238C55.9805 45.6648 52.1372 49.5081 47.3963 49.5081H27.6028C22.8618 49.5081 19.0186 45.6648 19.0186 40.9238V33.1548C19.0186 22.948 27.2928 14.6738 37.4995 14.6738Z" fill="#272F3A"/>
<path d="M42.4724 58.0435C41.1528 59.3642 39.3624 60.1062 37.4955 60.1062C35.6285 60.1062 33.8381 59.3642 32.5186 58.0435V40.981H42.4724V58.0435Z" fill="#FFD9B6"/>
<rect x="23.9922" y="18.9375" width="27.0163" height="37.6793" rx="13.5082" fill="#FFD9B6"/>
<path d="M40.6388 45.9537C40.9409 45.9534 41.2258 46.0938 41.4096 46.3335C41.5934 46.5732 41.655 46.8849 41.5763 47.1765C41.027 48.9672 39.3733 50.1896 37.5002 50.1896C35.6272 50.1896 33.9735 48.9672 33.4241 47.1765C33.3451 46.8835 33.4077 46.5703 33.5933 46.3303C33.779 46.0902 34.0663 45.9508 34.3698 45.9537H40.6388Z" fill="white"/>
<path d="M23.9916 43.9319C25.5629 43.9319 26.8367 42.6581 26.8367 41.0868C26.8367 39.5155 25.5629 38.2417 23.9916 38.2417C22.4203 38.2417 21.1465 39.5155 21.1465 41.0868C21.1465 42.6581 22.4203 43.9319 23.9916 43.9319Z" fill="#FFD9B6"/>
<path d="M51.0082 43.9319C52.5795 43.9319 53.8533 42.6581 53.8533 41.0868C53.8533 39.5155 52.5795 38.2417 51.0082 38.2417C49.4369 38.2417 48.1631 39.5155 48.1631 41.0868C48.1631 42.6581 49.4369 43.9319 51.0082 43.9319Z" fill="#FFD9B6"/>
<path d="M21.8558 32.5516C21.8558 32.5516 33.9455 36.8152 47.4536 28.288C47.4536 28.288 49.5895 32.5516 53.1601 34.6875C53.1601 34.6875 53.8694 14.7799 37.5161 17.625C21.1629 20.4701 21.8558 32.5516 21.8558 32.5516Z" fill="#272F3A"/>
<path d="M32.5273 58.0435L28.9648 63.0163L32.5273 58.0435Z" fill="#008C74"/>
<path opacity="0.15" d="M32.5273 56.8535V55.6714C34.1101 56.2989 35.7976 56.6198 37.5002 56.617C35.8611 56.9219 34.188 57.0014 32.5273 56.8535Z" fill="#272F3A"/>
<rect x="23.9922" y="30.4155" width="27.0163" height="4.26359" fill="#00BF9A"/>
<path d="M43.1902 34.6876C46.3328 34.6876 48.8804 32.14 48.8804 28.9973C48.8804 25.8547 46.3328 23.3071 43.1902 23.3071C40.0476 23.3071 37.5 25.8547 37.5 28.9973C37.5 32.14 40.0476 34.6876 43.1902 34.6876Z" fill="white"/>
<path d="M43.19 30.4156C43.9734 30.4156 44.6084 29.7805 44.6084 28.9971C44.6084 28.2137 43.9734 27.5786 43.19 27.5786C42.4066 27.5786 41.7715 28.2137 41.7715 28.9971C41.7715 29.7805 42.4066 30.4156 43.19 30.4156Z" fill="#E6E6E6"/>
<path d="M33.3587 0.81543H4.1413C1.85413 0.81543 0 2.66955 0 4.95673V21.1306C0 23.4178 1.85413 25.272 4.1413 25.272H11.2092L16.3043 29.348V25.272H33.3587C35.6459 25.272 37.5 23.4178 37.5 21.1306V4.95673C37.5 2.66955 35.6459 0.81543 33.3587 0.81543Z" fill="#00A8EA"/>
<path d="M18.7503 15.489C20.101 15.489 21.196 14.394 21.196 13.0433C21.196 11.6926 20.101 10.5977 18.7503 10.5977C17.3996 10.5977 16.3047 11.6926 16.3047 13.0433C16.3047 14.394 17.3996 15.489 18.7503 15.489Z" fill="#007EB0"/>
<path d="M9.78257 15.489C11.1333 15.489 12.2282 14.394 12.2282 13.0433C12.2282 11.6926 11.1333 10.5977 9.78257 10.5977C8.43187 10.5977 7.33691 11.6926 7.33691 13.0433C7.33691 14.394 8.43187 15.489 9.78257 15.489Z" fill="#007EB0"/>
<path d="M27.6684 15.7421C29.0461 15.7421 30.163 14.6252 30.163 13.2475C30.163 11.8698 29.0461 10.7529 27.6684 10.7529C26.2907 10.7529 25.1738 11.8698 25.1738 13.2475C25.1738 14.6252 26.2907 15.7421 27.6684 15.7421Z" fill="#007EB0"/>
</svg>
