<svg xmlns="http://www.w3.org/2000/svg" width="18" height="18" viewBox="0 0 18 18">
  <g fill="none" fill-rule="evenodd">
    <path fill="#FFF" d="M18,9 C18,13.971 13.971,18 9,18 C4.029,18 0,13.971 0,9 C0,4.029 4.029,0 9,0 C13.971,0 18,4.029 18,9 Z"/>
    <path fill="#00AF91" fill-rule="nonzero" d="M6.5 6C6.74545989 6 6.94960837 6.17687516 6.99194433 6.41012437L7 6.5 7 12.5C7 12.7761424 6.77614237 13 6.5 13 6.25454011 13 6.05039163 12.8231248 6.00805567 12.5898756L6 12.5 6 6.5C6 6.22385763 6.22385763 6 6.5 6zM11.833 6C12.0784599 6 12.2826084 6.17687516 12.3249443 6.41012437L12.333 6.5 12.333 12.5C12.333 12.7761424 12.1091424 13 11.833 13 11.5875401 13 11.3833916 12.8231248 11.3410557 12.5898756L11.333 12.5 11.333 6.5C11.333 6.22385763 11.5568576 6 11.833 6z"/>
    <path fill="#00AF91" fill-rule="nonzero" d="M11.8333,9.3333 C12.1094424,9.3333 12.3333,9.55715763 12.3333,9.8333 C12.3333,10.0787599 12.1564248,10.2829084 11.9231756,10.3252443 L11.8333,10.3333 L6.5,10.3333 C6.22385763,10.3333 6,10.1094424 6,9.8333 C6,9.58784011 6.17687516,9.38369163 6.41012437,9.34135567 L6.5,9.3333 L11.8333,9.3333 Z"/>
  </g>
</svg>
