<svg xmlns="http://www.w3.org/2000/svg" width="20" height="20" viewBox="0 0 20 20">
  <g fill="#00AF91" transform="translate(1 1)">
    <path d="M6.5 6C6.74545989 6 6.94960837 6.17687516 6.99194433 6.41012437L7 6.5 7 12.5C7 12.7761424 6.77614237 13 6.5 13 6.25454011 13 6.05039163 12.8231248 6.00805567 12.5898756L6 12.5 6 6.5C6 6.22385763 6.22385763 6 6.5 6zM11.833 6C12.0784599 6 12.2826084 6.17687516 12.3249443 6.41012437L12.333 6.5 12.333 12.5C12.333 12.7761424 12.1091424 13 11.833 13 11.5875401 13 11.3833916 12.8231248 11.3410557 12.5898756L11.333 12.5 11.333 6.5C11.333 6.22385763 11.5568576 6 11.833 6z"/>
    <path d="M11.8333,9.33333 C12.1094424,9.33333 12.3333,9.55718763 12.3333,9.83333 C12.3333,10.0787899 12.1564248,10.2829384 11.9231756,10.3252743 L11.8333,10.33333 L6.5,10.33333 C6.22385763,10.33333 6,10.1094724 6,9.83333 C6,9.58787011 6.17687516,9.38372163 6.41012437,9.34138567 L6.5,9.33333 L11.8333,9.33333 Z"/>
    <path d="M9,-0.5 C3.75285763,-0.5 -0.5,3.75285763 -0.5,9 C-0.5,14.2471424 3.75285763,18.5 9,18.5 C14.2471424,18.5 18.5,14.2471424 18.5,9 C18.5,3.75285763 14.2471424,-0.5 9,-0.5 Z M9,0.5 C13.6948576,0.5 17.5,4.30514237 17.5,9 C17.5,13.6948576 13.6948576,17.5 9,17.5 C4.30514237,17.5 0.5,13.6948576 0.5,9 C0.5,4.30514237 4.30514237,0.5 9,0.5 Z"/>
  </g>
</svg>
