<svg width="92" height="92" viewBox="0 0 92 92" fill="none" xmlns="http://www.w3.org/2000/svg">
<path d="M46 92C71.4051 92 92 71.4051 92 46C92 20.5949 71.4051 0 46 0C20.5949 0 0 20.5949 0 46C0 71.4051 20.5949 92 46 92Z" fill="#EBFAF7"/>
<rect x="48.6201" y="59.8604" width="14.83" height="20.06" rx="7.41" fill="#272F3A"/>
<path d="M53.3502 71.2002H38.6502C30.3957 71.2034 22.9426 76.1406 19.7202 83.7402C35.5175 94.7396 56.493 94.7396 72.2902 83.7402C69.0664 76.1373 61.6084 71.1994 53.3502 71.2002Z" fill="#00A8EA"/>
<path d="M26.8101 84.1504V87.8004C27.3834 88.0671 27.9634 88.3204 28.5501 88.5604V84.1504H26.8101Z" fill="#007EB0"/>
<path d="M65.1899 84.1504H63.4399V88.5704C64.0266 88.3304 64.6066 88.0771 65.1799 87.8104L65.1899 84.1504Z" fill="#007EB0"/>
<path d="M46.0001 18C58.5204 18 68.6701 28.1497 68.6701 40.67V50.2C68.6701 56.0156 63.9556 60.73 58.1401 60.73H33.8601C28.0445 60.73 23.3301 56.0156 23.3301 50.2V40.67C23.3301 28.1497 33.4798 18 46.0001 18Z" fill="#272F3A"/>
<path d="M52.1001 71.1995C50.4815 72.8196 48.2853 73.7299 45.9951 73.7299C43.705 73.7299 41.5088 72.8196 39.8901 71.1995V50.2695H52.1001V71.1995Z" fill="#FFD9B6"/>
<rect x="29.4302" y="23.2305" width="33.14" height="44.22" rx="16.57" fill="#FFD9B6"/>
<path d="M49.8501 56.3702C50.2206 56.3698 50.5701 56.5421 50.7956 56.8361C51.021 57.1302 51.0966 57.5124 51.0001 57.8702C50.3262 60.0667 48.2977 61.5663 46.0001 61.5663C43.7025 61.5663 41.674 60.0667 41.0001 57.8702C40.9031 57.5107 40.9799 57.1266 41.2076 56.8321C41.4354 56.5376 41.7878 56.3667 42.1601 56.3702H49.8501Z" fill="white"/>
<path d="M29.4299 53.8902C31.3574 53.8902 32.9199 52.3276 32.9199 50.4002C32.9199 48.4727 31.3574 46.9102 29.4299 46.9102C27.5025 46.9102 25.9399 48.4727 25.9399 50.4002C25.9399 52.3276 27.5025 53.8902 29.4299 53.8902Z" fill="#FFD9B6"/>
<path d="M62.5701 53.8902C64.4976 53.8902 66.0601 52.3276 66.0601 50.4002C66.0601 48.4727 64.4976 46.9102 62.5701 46.9102C60.6426 46.9102 59.0801 48.4727 59.0801 50.4002C59.0801 52.3276 60.6426 53.8902 62.5701 53.8902Z" fill="#FFD9B6"/>
<path d="M26.8099 39.9297C26.8099 39.9297 41.6399 45.1597 58.2099 34.6997C58.2099 34.6997 60.8299 39.9297 65.2099 42.5497C65.2099 42.5497 66.0799 18.1297 46.0199 21.6197C25.9599 25.1097 26.8099 39.9297 26.8099 39.9297Z" fill="#272F3A"/>
<path opacity="0.15" d="M39.8999 67.74V66.29C41.8414 67.0597 43.9114 67.4534 45.9999 67.45C43.9893 67.824 41.937 67.9215 39.8999 67.74Z" fill="#272F3A"/>
</svg>
