<svg width="92" height="92" viewBox="0 0 92 92" fill="none" xmlns="http://www.w3.org/2000/svg">
<path d="M46 92C71.4051 92 92 71.4051 92 46C92 20.5949 71.4051 0 46 0C20.5949 0 0 20.5949 0 46C0 71.4051 20.5949 92 46 92Z" fill="#EBFAF7"/>
<rect x="48.6201" y="59.8604" width="14.83" height="20.06" rx="7.41" fill="#272F3A"/>
<path d="M53.3497 71.2002H38.6497C30.3952 71.2034 22.9421 76.1406 19.7197 83.7402C35.517 94.7396 56.4925 94.7396 72.2897 83.7402C69.066 76.1373 61.6079 71.1994 53.3497 71.2002Z" fill="#00A8EA"/>
<path d="M26.8096 84.1504V87.8004C27.3829 88.0671 27.9629 88.3204 28.5496 88.5604V84.1504H26.8096Z" fill="#007EB0"/>
<path d="M65.1904 84.1504H63.4404V88.5704C64.0271 88.3304 64.6071 88.0771 65.1804 87.8104L65.1904 84.1504Z" fill="#007EB0"/>
<path d="M46.0001 18C58.5204 18 68.6701 28.1497 68.6701 40.67V50.2C68.6701 56.0156 63.9556 60.73 58.1401 60.73H33.8601C28.0445 60.73 23.3301 56.0156 23.3301 50.2V40.67C23.3301 28.1497 33.4798 18 46.0001 18Z" fill="#272F3A"/>
<path d="M52.0996 71.1995C50.481 72.8196 48.2848 73.7299 45.9946 73.7299C43.7045 73.7299 41.5083 72.8196 39.8896 71.1995V50.2695H52.0996V71.1995Z" fill="#FFD9B6"/>
<rect x="29.4297" y="23.2305" width="33.14" height="44.22" rx="16.57" fill="#FFD9B6"/>
<path d="M49.8501 56.3702C50.2206 56.3698 50.5701 56.5421 50.7956 56.8361C51.021 57.1302 51.0966 57.5124 51.0001 57.8702C50.3262 60.0667 48.2977 61.5663 46.0001 61.5663C43.7025 61.5663 41.674 60.0667 41.0001 57.8702C40.9031 57.5107 40.9799 57.1266 41.2076 56.8321C41.4354 56.5376 41.7878 56.3667 42.1601 56.3702H49.8501Z" fill="white"/>
<path d="M29.4304 53.8902C31.3579 53.8902 32.9204 52.3276 32.9204 50.4002C32.9204 48.4727 31.3579 46.9102 29.4304 46.9102C27.503 46.9102 25.9404 48.4727 25.9404 50.4002C25.9404 52.3276 27.503 53.8902 29.4304 53.8902Z" fill="#FFD9B6"/>
<path d="M62.5701 53.8902C64.4976 53.8902 66.0601 52.3276 66.0601 50.4002C66.0601 48.4727 64.4976 46.9102 62.5701 46.9102C60.6426 46.9102 59.0801 48.4727 59.0801 50.4002C59.0801 52.3276 60.6426 53.8902 62.5701 53.8902Z" fill="#FFD9B6"/>
<path d="M26.8099 39.9297C26.8099 39.9297 41.6399 45.1597 58.2099 34.6997C58.2099 34.6997 60.8299 39.9297 65.2099 42.5497C65.2099 42.5497 66.0799 18.1297 46.0199 21.6197C25.9599 25.1097 26.8099 39.9297 26.8099 39.9297Z" fill="#272F3A"/>
<path opacity="0.15" d="M39.9004 67.74V66.29C41.8419 67.0597 43.9119 67.4534 46.0004 67.45C43.9897 67.824 41.9374 67.9215 39.9004 67.74Z" fill="#272F3A"/>
<path d="M40.92 1H5.08C2.27439 1 0 3.27439 0 6.08V25.92C0 28.7256 2.27439 31 5.08 31H13.75L20 36V31H40.92C43.7256 31 46 28.7256 46 25.92V6.08C46 3.27439 43.7256 1 40.92 1Z" fill="#00BF9A"/>
<path d="M22.8446 25.6892C28.2816 25.6892 32.6892 21.2816 32.6892 15.8446C32.6892 10.4076 28.2816 6 22.8446 6C17.4076 6 13 10.4076 13 15.8446C13 21.2816 17.4076 25.6892 22.8446 25.6892Z" fill="#008C74"/>
<path d="M26.461 18.6786L22.0469 16.3239V11.0557H23.6433V15.366L27.2113 17.2684L26.461 18.6786Z" fill="white"/>
</svg>
